{
  "states": [
    "affirm",
    "ask_bot_possibility",
    "back",
    "bot_challenge",
    "deny",
    "give_name",
    "goodbye",
    "greet",
    "mood_great",
    "mood_unhappy",
    "nlu_fallback",
    "offend",
    "out_of_scope",
    "restart",
    "satisfaction",
    "session_start",
    "status",
    "thankyou",
    "to_learn",
    "marketing",
    "selling",
    "finance",
    "value_creation",
    "subject",
    "question",
    "offend",
    "bot_possibility",
    "status",
    "context_0",
    "finance_0",
    "greet_0",
    "learn_continuous_0",
    "learn_continuous_1",
    "marketing_0",
    "name_0",
    "question_0",
    "satisfaction_0",
    "satisfaction_1",
    "selling_0",
    "status_entrepreneurial_0",
    "subject_0",
    "value_creation_0",
    "action_listen",
    "action_restart",
    "action_session_start",
    "action_default_fallback",
    "action_deactivate_loop",
    "action_revert_fallback_events",
    "action_default_ask_affirmation",
    "action_default_ask_rephrase",
    "action_two_stage_fallback",
    "action_back",
    "...",
    "utter_greet",
    "utter_ask_user_name",
    "utter_ask_bot_possibility",
    "utter_thankyou",
    "utter_return_thankyou",
    "utter_ask_learn_continuous",
    "utter_ask_what_to_learn",
    "utter_ask_user_satisfaction",
    "utter_answer_back_satisfaction",
    "utter_answer_question",
    "utter_default",
    "utter_ask_the_next",
    "utter_answer_offend",
    "utter_ask_for_possibility",
    "utter_cheer_up",
    "utter_did_that_help",
    "utter_give_name",
    "utter_goodbye",
    "utter_happy",
    "utter_iamabot"
  ]
}