{
  "action_fingerprints": {
    "utter_ask_learn_continuous": {
      "slots": [
        "learn_continuous"
      ]
    },
    "utter_ask_user_name": {
      "slots": [
        "name"
      ]
    },
    "utter_return_thankyou": {
      "slots": [
        "name"
      ]
    }
  },
  "python": "3.7.9",
  "max_histories": [
    5,
    5,
    null
  ],
  "ensemble_name": "rasa.core.policies.ensemble.SimplePolicyEnsemble",
  "policy_names": [
    "rasa.core.policies.memoization.MemoizationPolicy",
    "rasa.core.policies.ted_policy.TEDPolicy",
    "rasa.core.policies.rule_policy.RulePolicy"
  ],
  "trained_at": "20201202-104016",
  "rasa": "2.1.1",
  "tensorflow": "2.3.1",
  "sklearn": "0.23.2"
}