{
  "priority": 3,
  "max_history": 5,
  "lookup": {
    "eJyLrq6NBQAEOAGx": "action_listen",
    "eJyLrq7VUaguKEoti09MLsnMz7NSqIYw4vMSc1OtFKCcnMziktQ8oNrS4tQioJrMPCC3xEohvSg1taS2NhYA6dwbhQ==": "utter_greet",
    "eJydjlEKgCAQBa+yB+gEXiVi0VhiyVTcNQjx7gn2L/T3BobhrbUtUFOmG+2uHIOBOgYGe5GBDzyLUuhuEcrd4dBRDRyZSNukUVQp41D/FSYvrJzoomKKIuzYsz6tbS8i6VRR": "utter_ask_bot_possibility",
    "eJytjtEJgDAMRFfpAE7QVURC1SjBmkoTBZHubkE/RUX8y4W7xyu3KeICrlEKbM12HMBuRGvO4EkUORVmFoy5Q5yjWtNHRE35f8eYVTHCUf1GeLBwMkAdFKYgQjV50vWd09XwD/qDb+g65DalagcmyJIa": "utter_answer_offend",
    "eJytjsEJwzAMRVfxAJnAq5Qg7FYpoq4cLCUhmO5eg31rUvfQk6SP3uNf8pxwBXdVimxNrguwe6I1iyomuCdEfQ1mEUzlg1iR1Zoal/yboR2BpECfDicP8FFhjiLkKZDuPWPtdAT+w97pG6cJ+fZjRZatjIacqsY3r5KU/Q==": "action_listen",
    "eJytjlEKwjAQRK+SAxTR31yllJCEpazGpGY3opTcvQupCCoq4t/OMvN4/TxlOBvrGVPUam6HifYIWq0hIDHE2qlCkKWDUSJrNWYArvJ/xyjMkE2r/kb4YGHpYFxiMyUidBiQr985vRr+g/7oSyExScknYV6E2e8226FTpwLU9uuDIASM4z0Xtwd/Gzy7cTIBbI61DgvjzaqS": "utter_answer_question",
    "eJy9j90KwjAMhV+lDzBEb/cqY5SuhBGt6WxSfxh7dwPdEJyoF+JVkkPOl5NmHBKcrfOCkWozlsaSO0Jtsggk2ycAmSqTGZJuIAmQ1KbIqr8jzENAVtOa4fhguyh2iMzYYUC5fSKWTK+Mv6A/5+UQhXXJR2VeldnsNtu2MqcMXPyzwBACUv+Yc7cHvxjW2STaAC7Rl+8SX7QsV/8TrL0De9nG8w==": "utter_ask_user_satisfaction",
    "eJzNkF0KwjAQhK+SAxTR116llCUtq6zGTc1u/KH07q60RVARH0R8SiaZ+XaSqu8SHsG3SpFL148bYL/H0k0ikCjyULgsmMxDbFLtWnbQRIUuilBDgfQymOsdMatiglfBb9Af+0qIKmZqozHPxqxWi2VduENGGfPTgWAIxJu7zs0W2znw3E0jBPSJP3wuy8mWeeofFbMvvgFAvJKsR8dv6tVX1Ynmcw==": "action_listen",
    "eJzNkd0OgjAMRl9lD0CM3vIqhDQDi6nODtfOnxDe3RogXmj0zni1dTk9/bZVQ5/wDL5Vily6YdoA+yOWLqtiAi8HaKJCH0WooUB6GwuXBZPxxIqspXsHGfXJPheBxBTGSogqBrXRnFdzVpvVui7cKaNM/fOBYAjEu2edmz22S8NrNo0Q0Cf+Fmi+LsvFlmXqHwWzJ34IQLySdBPxD/F+9pGx65C341jfAa87+H4=": "utter_answer_offend",
    "eJzNUdEKwjAM/JV+wBB97a+MUWpNpVpTbVIdjP27kXb4Jvgy9pRccnc5SD/dMzyNdRwSajXVxqC9gVYNxEAMOHeKYmISkkvIMLJW/WG3Hzr1KEBV3wYEMQY8f3E5XsAtAnEqBFmMgvigjDmZCDbjLKtfgQozZGORXlKWqxsKRlfzMTBkOZCvjC3EW+2RyXvA019vbJIVQg1vSO4H/A==": "action_listen",
    "eJzNUUkOwjAM/EoeUCG45itVFYXiQGhwIHZYVOXvuGoL115YTrbHM6ORXffnBFdjW/YRterHxqA9gVaZGZKxSDcplww07EqlKEQmIbcRGe6sVb1ZrZtKzZQXQBCCx/17ztsjtLNAnDJBEiMvPigwRxPAJiyyWhCMOjMYGLLsyY2Mf4g3DcGT6D4ZKDoHuFt4rfGNk+Tnob52Iz5Y7B4xl9I8AVaFCBs=": "utter_return_thankyou",
    "eJzFkEsOwjAMRK+SA1QItrlKVUWhuBAaHIgdCqp6d4wSYAdsKCt/Z/Q09XiMcDa2ZRdQqzE3Bu0BtErMEI2l3iSShiw76vLHVCnygUkkbUCGC2tVrxbLplKnBJTdyoLAe4fb15zWe2gfAnG6u4uREx+UNQfjwUac5PQOrwzekeh+CRS6DnDzCaekhTRIKZK/Q82WEe8s9teQvkspAqeI5imaBay5AVD4CEU=": "utter_ask_learn_continuous",
    "eJzNkE0KwkAMha8yByii216llGGsqY4dMzpJ/KH07kamKrgoLkRdJXnJe3yk6vcJjtY17COWps+NRbeD0oxD8MSAQ2EoRCY9aiIynLk01WI2rwtzEKDsHwWCEDyun7Mst9DcDZokBEmDvOagyrFtAVeDLqZwhBmSdUgnLaPl51Bf+xFvHHaXKO99KQFLQvsw/Q2Yo84GcMp2A/EoUWiC7vU0Lwrzcfb6CgMgEZY=": "action_listen",
    "eJzNkUkOwjAMRa+SA1QItr0KqqJQXAgNDsQ2g6reHaMUkFgUNkWsHA//58ledocEJ+tq9hFL0+WHRbeH0ggzJOuQzhpi0wCu+8JQiEw6WkdkuHBplovZvCrMUYCyy1AgCMHj5pXLagf1Q6BOQpDUyKsPann4QRtjUEMSPKlqShzeOmyvUT4B5S0lYElon6K/AXPU2gBO2e4gHiUKjdC9j+ZGYX7M/u2Vp8aNeXd9X90AHUAcCA==": "utter_answer_question",
    "eJzNkd0KwjAMhV+lDzBEb/cqY5Q6gtbVVJtEHWPvbqSbghdjN8qu0vyc04+k6i8JbtY17COWps8Pi+4MpRmT4IkBh8JQiEw61ERkeHBpqt1mWxfmKkBZPxYIQvB4+OSyP0EzCdRJCJIaefVBLfPRYdtFGbQ1ByTMkGwCloT2LVoNmKPWBnDK9gLxKFFohu57NDcK82f2pVf+NW7Mu1u4aqS7hunXNWDXT0SwJ4A=": "action_listen",
    "eJyLrq7VUaguKEoti09MLsnMz7NSqIYw4vMSc1OtFKCcnMziktQ8oNrS4tQioJrMPCC3xEohvSg1taSWgBmlJSWpRfEQpeSZQMAVufn5KfGleRmJBQWVtbWxAN75UWc=": "utter_cheer_up",
    "eJydjlEKgCAQRK/iATqBV4lYxJYUchVdgxDv3oL9G/0MM/B4zNr6olrKeIGx7CNp1UYBMgG1esfpCyMJWwtmYTzJZK2OjMh94qjMmGGg/wyTFyHGHSo5k9L97Yx1KFnTzLU9XiFuqQ==": "utter_did_that_help",
    "eJytjmEKgCAUg6/iATqBV4l4SI4U6in2DEK8e0L9roj+jG2Mj/UlJmxkRvGBtSqnITYLtLrC7FcB107lFaltPLcoWk0JkNr6O0YWQaJz+o3w8GIJwVJmZ2Lc350ZHZrm+AfLekvijJDD/AgcDn2pjKU=": "action_listen",
    "eJytz1EKwyAMBuCreICdwKuMEqT+VKGNonEwpHdvwL0N6sP2EpKQfCTPngte5FaJia3pIyF2B6xpIii0FUDOh2kVRSciC1isGW3t3wmfYo9Vl76NIyVPjYPL+T2jxjFrgMaW/2H56EmCEwrYfwQnf3qwEssFQuGMPg==": "utter_goodbye",
    "eJytj9EJwzAMRFfxAJ3Aq4Qi3PiIDYlsHLlgTHaPIPlNW2h+Dh0nnnRDzwVvcqPExNb0YyB2C6w5zRxXAW8PU1cU3YmsVqxZUvJUObic26bxJ1QVQaExQLXmO1g+epLghALmP4Ffenrwjz9NevTVcIV47h7MjKk=": "action_listen",
    "eJytjlEKgzAQRK+SA3iCXEXKkshWlmoi2VGQkLs3kH6WRop/O8ubx4x5S3yQmyAxWJPbQcGtbM0nLKLgUAazK6fKSKgR1syJGaX+fzl2gBM19D9DZ4XTF/kI2qKqeFkE57VN34p32Dt71UH02aBSHm+ctJSw": "utter_answer_back_satisfaction",
    "eJytjlEKAjEMRK/SA3iCXkUkpEuUsGu6NLOKLN7dQv0Rl60ffmUyzDzmuM5FbsQDNFsMaxNkfJUYFkAKXYoInoewuJSaUIMYYmh29fcI72dSr6VvBvtIKYPm7K5JJ8WjR2ybtor/oHf2OkP93EI/DjW/15N4GOmj3WGfXqfAnq8=": "action_listen",
    "eJytjm0KwjAMhq/SA3iCXUUkpCNi6JaOJt0Yo3c3MP8Iwwn6K3l5P3iu21RoBuyNs3Rh2x8QHKkLLzGwGkm7hKpUPMPi0tzWBDEbTFmVIw9sa/PUp8VqRgWOiv9YP+FVNNb7HvoSVHTxE7FP8Nb+afsE0x4oac21tdsThfKgzQ==": "utter_return_thankyou",
    "eJyljmEKwjAMha/SA3iCXkUkpCNi6ExHkipjeHcLG4I4toG/8gLf+3jnaVB6AHbORWKY5gCCd4qhupMCWoZUHIZixol79vF1CtVIG8/iJB7DGtSoLfvy9GxN8Ws0dLbrDO2plqFiz3YSdhm+2n+5d2b6DSWPpR6bqORVBT6lDd3lDcqxn9w=": "utter_ask_learn_continuous",
    "eJyljtEKwjAMRX8lHzBGfe2vjFHiiFhaU2lSRcb+3cBE0Icp7Cm55N6TO8zXSreAk8bCHuZ1CYwX8vASOYoSLx00oWqeyCbVg6BGOa2mxc5bqKZKNSDL3cYRpxQ+0rvYP2rqGTk9SvuvYiVtlcM7tBOHkkImNOJUWCO30sSCkouKJb5PHoZD7zpwvRu3Xo9PnZqo0Q==": "utter_ask_the_next",
    "eJytjt0KwjAMRl+lDzBGve2rjBFiiaxsptKk/jD27gYmggp64a6S8OWcpJtPhc6AUVPm4Oa1AcYjBVdVqQCyXKzsMY4gqEkO69LSuCpUDEqsxBrcS2rxN/djmJIY+6nSAXm85fpLs75YSGtheEJ/6lBGmAjNGDNr4pqrGChTVjHiPQqu27W+cb71/RandSBguuoGJ/s76R+2dg==": "action_listen",
    "eJydjlEKAjEMRK/SAyyiv73KspRahqVLTbVJRSi9u4GuCPoh+JcJbx4ztz6Zdi24Ox8kZrKmjcORv8CaPaTIAlK2MooykTSKNWsBpP9wVBEUN9D/DJ8rOGVhhUJWy0Mt8+lwXCZzq+DR3x+MlCKt71zPG8Kr8L1GskvwhXpfnrvyZz4=": "utter_answer_question",
    "eJy9j9EKwjAMRX+lHzBEX/srY5RaLqNSU21SFcb+fYFuCPqg+OBTcsPNyU0/zZ2ZLgU354PETNZMrXHkz7BmFSmygNRbGUU9kVSKNWMBZP7AqCIorll/I7ym4JSF1RSyUh5K6Q+7/dCZawW3/XXASCnS+NT1eELYFt7TSHYJvtB3L3niu5bt6n+CDQsib51z": "utter_ask_user_satisfaction",
    "eJzNj9EKwjAMRX+lHzBEX/srY4Ra4qjWVJtUhbF/X6QbgoKID+JTcsPNyU07nDJewHkJiawZagPkjmjNLGJgQRobUxizegKpFGv6jCijzt8xighmqNbvCM8pOCZhNfmklJtS2s1q3TXmXJDr/jxgjDFQ/9Blu0e/LLymkQQRXabPXnLEVy3L1T8Kxge4A4CdBN5Vx2/idRMhj9TB": "action_listen",
    "eJzNUdEKwjAM/JV+wBB97a+MEWqJo1pTbVIVxv59kW6ICPome0py3F0upB0uGW/gvIRE1gy1AXJntKaIYIY+I8rYmMKYlRFIkMSaCiv+zWEeYmAVKZdjElaST+ryUJd2t9l2jbkW5KqfAcYYA/WvueyP6BfBZxpJENFl+hWonuSI71qWrSsKxid4GgA7CXyojDXE+9sj3w4fuwkZk+9I": "utter_answer_back_satisfaction",
    "eJzNUVEOwjAIvUoPsBj97VWWhXQNmrpKtVA1WXb3YbbF7MfEn2VfwAMeD6j7e8YnOC8hkTX95AC5G1ozBzGwIA2V4ZiEtcgnEnyLNfXpcGwq8yjIU/8MMMYY6PKNS3tFvzQoU2HMShSUhxSWBBFdpkFTvwQVEczgiF9qlqk7EsYdfAiAnQQ+TxV7kLfZI1eL//PM1vlus7OtVTYjEnMRrg==": "action_listen",
    "eJzNUUkOwjAM/EoeUCG49itVFaWRgdDgQOywqMrfcRUK4lYOVJy8jUfjcTOcIly0sewC1mooiUZzhFolZojaIF0lnBPQOMuVIh+YBGwDMty4Vs1mtW4rNUFeDQLvHe7edeoOYKcFYUoEUYic8KC0OWgPJmKW0Qxh1OuRQJNhR9uC+Ad5z8I7kr1fCvo4fJ5n5Zmdsf1itn2jcjHreG+wv4eUc/sAEOoRzQ==": "utter_return_thankyou",
    "eJyLrq7VUaguKEoti09MLsnMz7NSqIYw4vMSc1OtFKCcnMziktQ8oNrS4tQioJrMPCC3xEohvSg1taSWgBmlJSWpRfEQpZSYkFicHQ/SDRYE6ijOyS8pBiqFqIk21DOIxWl+LADEjlgE": "utter_thankyou",
    "eJy1jkEKwkAMRa8yBxCp27lKKSFIsEPHjCQZRUrvbtpxLUjpLj+8/5J+fgg9Aa+WCscwtwEY7xTDN+SkRrycQlUSZxJ7tBhuQmSL7385qhkJNHSPAXWCtb0tvaG5mDramP5y7oZdfhuRp3epB6jX118jGliBTCj8543hA+tQnVg=": "action_listen",
    "eJy1juEKwjAMhF+lDyCif/sqY4RMggur6WhSZYy9+1rrfwX1X+64+3LdOie6A16Mo3i3tgMEb+RdNqME10Rk28FlpVQSLEZi3jW7+O8JqBPU9tMsDQ3RtERbpjsfT/1XfBtRpiXmP6Dr9MeIBhYhECb56Y+XCKyl9Cm5ThqiwRxVeeDAtmxbvwMILqpT": "utter_ask_bot_possibility",
    "eJy1T0sKwkAMvcocQES3vUopIZVgQ8dJmWSUUnp3M9SVGwvq7uXxfmmXKdMd8GIsqQnLBiDhjZpQzCgD6ghFHVRyPQSNYurSTdOej6fO2apwkpNRsiZcM5Gtzn/OtwHTOEv5Q3Sd/hjQwAQiYU4/7XgdkdVNe5PrpF4MJlHlniPbvP+Xd+M3nd0TMeq9NA==": "action_listen",
    "eJy1kVEKgzAQRK+SA0hpf72KSFhl0dSY2OykrYh3b4pSSkHqR/u3eZudmWWLaQh81VTDeJeraSm0o55zFQEOGi25bvRxzpRYD0m/lnZxOhzLRKNwSNA4sEOumsCMOfHv0iSdvrUEDa8tU3A/9Vgf1kga2qv8jFR56MGLmMpYg3H/Lp+D//Pc2q32SfOO1SpTPYWOYVzzIm9JMnWJLIv8CiRWZ66xGfV1qLl8ABss0NA=": "utter_answer_question",
    "eJzFkdEOgjAMRX9lH0CMvvIrhDSDNFgZG66dSAj/7gyIxgTlxfi07aa957bLhtbjBXQp5GyqhukCVjeYqiCCHjTX0B21gDgwqL0dE8XGCcfyqS477PZ5VAOjjyJZQSupqjyijFH/xJgfhjg2bXW+RyqcQOuYqSBD0n/jPGd5b/wdc2220kXPq8yoRDXa1yhkq0V5SZKoc0Ce7GeBQ3HCUlajLh+1bSeWu3g8KH/Jmd8A6tbp5A==": "utter_ask_user_satisfaction",
    "eJzNUUkOwjAM/EoeUCG49itVFaWVQaapU2KHRVX/jlEK4kARFwSnJJPxzNiuxiHC0bpWMFBpxnyx5HoozfzwyAI0FYZ9EFZS/q02q3WtaGKICiIpSbSIO9sEsUNgxgY9ymVS1jufJALRvir8nudSb21QzbPMVoXpXexAkHYP5ClJYQ4JOMvPAKdmD60sRpVgPbhIH86E+KTH3eV/c+oCbgKWnSBvM+MnaesrJu4B0g==": "action_listen",
    "eJzNUe0KwjAMfJU+wBD9u1cZo3QjSlzXziZVx9i7G2mVCX78dL+SHJe7I6mmIcBZm5bRu1JNqdHO9FCqyAxBG+p041kPnggbtMjjXCiynkkWErPabba1oJEgCIiOwXGp3q0K65tnHiySSCx8Wi+aV85WhepN6IDRHZ7IIkmhThEoyWeAYnOElj9GZa8tmOB+5cs3cXSR8nBZb055wF1Ak2GkfWKsMO2/vv5ylrm+ATJ9E8A=": "utter_answer_back_satisfaction",
    "eJzNkcEKwjAMhl+lDzBEr3uVMUpWotR1qTapCmPvbqSbsIvgaTsl+Zt8/Uma8ZbwYcGJj1SbsSSWYMDazEXwLEhTZThEYW1ykQRfUpvmdDi2lRkg9SieLl+lzM/FPSMX/Cxw7q7olnkFZ8akXK9YUlmiDQiJJn365S+LYLJA/NSw/LJfn9zbD8AyiOdz6dih262uvlrLP5fvwPVbLXVtun0DtLEnmA==": "action_listen",
    "eJzNkUsOwjAMRK+SA1QItr1KVUVpZCCkdSB2+KjK3XHVj8SubCirxGP7aTSu+muEuzaWXcBS9eNHo+mgVIkZojZID3luCWjo5UJRG5hk2AZkeHKpqsNuXxeqM9EDOzwtysiZipmwCJSaC9h5X8CJIArXCRZF5qBbMBGztFb4JK8HgCbDjo7jxB+6nYrWkez90N9HLOsSHS/fGOu3CvUb01sFy2eD/hVSzvUbEDontw==": "utter_return_thankyou",
    "eJzFUEkOwjAM/EoeUCG49itVFaWRgZDWgdhhUdW/Y5RQiQvLhZ5sjz3j0TTjMcJZG8suYK3G3Gg0A9QqMUPUhrxOJA0ZdrTNF1OlqA9MQrEBGa5cq2azWreVGkz0wA53M5LVynBKQPlZASh1B7BPvgg/nomuE1kUmIPuwUScZPXObRl6R8L7o7+XWD54LIkiXaR0xvqlQv3F9FLB8t6gv4X0XagROEXUM2kJn+0d+3sn4Q==": "utter_ask_learn_continuous",
    "eJzNkN0OwiAMhV+FB1jMvN2rLAvpSFVkK0qLP1n27mKYS/Ri8ca4K+hpz+Gj9XAKeNFgxHqq1JAvmqDHSk1FZ1mQxkJx54XTkPEkeJNK1dtN2RSqh+BQLO1nJfun4hyRc/wkcGyPaF7+FBwZQ8q1KZaSzCCWd/n1MbWXGKMIBg3E13S0YJx+c68T+l+LlQOQu/v43VIDSgykZ9NaOYGd7hAS6pPLUvSRF2A/R3OjUOWPv9I8ABW6MTE=": "utter_ask_the_next",
    "eJzNkNsOgjAMhl9lD0AM3vIqhiyFVJmDTtfOQ4jvbs2QRC/wznC1nv6/X7cbTxEvFlpxgSoz5sASDFiZJILRAvFVnwZabxnE8T4PPQrDfRBWVRtI8CaV2W03ZV2YAaJHcXSYK9lwSs4JOe+bCpyaI7ZvvRonxqi+Tm1Jyx9rtb0EPSW9Y9X+kVE6IH8P6Rdf/tSIkiLZWbRWTmBvewRFfXE5SiHxAuz3aG4UplzJKdKhJQVe4Qn1E+ufO08=": "action_listen",
    "eJytjlEKwkAMRK+yB/AEexWRkJagwXV3SWYVKb27C+1n0SL9y4SZxztP1eRJPEJLjmFaDsr8kBjWkNQheT6F5mK9o7lHxHA1Ecz9/43RADFaqv8Rfliw32kooFrcddCkeO9z2hoeS3/dGIRCSdj2ml8+x/ub0Q==": "action_listen",
    "eJytkN0KgzAMRl+lDyBju+2riIRagsusrWvS/SC++wp1Xsyx3XiXfOQ7HFJPY8QbGCsUvFZTGcCbAbVKIhihi4gyVyoxxnxBXtCLViXO+S/CsjjiXNoyDPfQBoExMFNLjuT5j1icvhX3pd/PRkACODRxH/PPX7ALwvnIhsx8ZGZ9OhybSg0m9ijkuzW5JuRCXAJO7QXtu7K1W73n5gVIWLV4": "utter_answer_question",
    "eJy9kN0OgjAMhV9lD0CM3vIqhDSDNFoZG66dSAjvbhN+LtQYL4hXW89Ov56uGLuId7C1UPC5GecLeNtibpbCEQv6KTOJMaqHvJaiz9xAFQS6wEwVOZJhUtc3YhLBCJ8a96X3FysgARzauE/y179gF4TVVAdlPpRZnA7HMjOtjQ0K+fOm3BLyTFwETtUV67XlPd2W+7d1Pfd6rFP+Fa18AiCm028=": "utter_ask_user_satisfaction",
    "eJzNkM8OgjAMh19lD0CMXnkVQppBqlbGhmsnGOK7W8Ofix44GONpXfPt628txi7iDWwtFHxuxqkAb1vMTRLBCJYbqIJAF5ipIkdyf2QmMUblyQt6yc0nSKlt9v5sBSSAQxv9V9zzxRGrQll2QVihOqhzUGdx2O3LzLQ2NijkT2vnmpAn49zgVF2wXp68p1tzb/uu516PZcpfRdM1vwTAVoiPE/GrgOUTHZztGw==": "action_listen",
    "eJzNkdsKwjAMhl+lDzBEb/cqY4RuRI3r2tmkHhh7dzN2ABH0TnbVNnz98qct+i7iDWwtFHxu+mkD3raYmySCESw3cD9bAQng0EY/ZCYxRqXJC3rJzYhUQaALzFSRI3kOSn1zzwdHrApl2QVhheqgzoc6i8NuX2amtbFBIX9aK9eEPBnnAqfqgvVy5TPdmvtHpHlcz3ddli6biqbPPAqArRAfJ2IbAf/4nW/DD+ULXGz9bA==": "utter_answer_back_satisfaction",
    "eJzNkcEKwjAMhl+lDzBEr32VMUpWotRuqTapCmPvbmSbsIvgZeyU5m/65U9TD7eMDwdeQiJrhungCHq0Zk66wII0Voa7JKxFPpHgS6ypT4djU5keckQJdPkq94I8EWeBS3tFvzxRVmHMigpKIpUluQ4h06hXvywVEcwOiJ8ali67ssbRfQCOQQKfp4p9GNxwnavh/1lpCz5u+HVrn80buaYV0g==": "action_listen",
    "eJzNUUkOwjAM/EoeUCG49itVFbmVgZDWgdhhUZW/46q0ErdyAHGKM/aMxuNqOEe8WmjFBSrNMBWWoMfSJBGMFohv+lwS8tjLheEuCOtwG0jwLqWpdpttXZgeokdxdFiQmbQAnJoTtjNFtRJjVCmnSqSwBNshRMraWmGNvR0FLIM43k8T/2Hw9ekcK++7lt6WX5fbdNIGWv/D6D7x+cP45AjkHyHlXD8BuQ8V8Q==": "utter_return_thankyou",
    "eJy9kEsOwjAMRK+SA1QItr1KVUVuZCCkdSB2+Kjq3TFqqcSGz4Ku4kwyT+Op+mPCswUnPlJp+nGwBB2WJotgssDBZtaBQTxvxx9DYbiNwmpxkQSvUppqs1rXhekgBRRPu1k5ZeSRPwmcmwO6p0VZD76ivJJIZYm2RUg06NO7gNOl9ay+/0Z6Wf5DrKk34oseDbiwYHW/5FywPtkDhVvM31WXUHIiO5sWilbfAZ8KFhs=": "action_listen",
    "eJy1j0EOwjAMBL+SB0QIrvlKVUUmMjS0OBA7UFT176SkqnpBHICbvdodr6vhEvFmwYkPZNRQBktwRqOSCEZ7jIgyapUYY3Z4EiQxqshZ/0wAbu2Ufok5wV0QztbiqXabbf0VXxqg9hHSH9BT9XsDYiXYDiHST2/MS+c5h1ZkFzKllxmu1cETkMNlX13W6pqQC3wWOO1P6ORtteWVsX4CAnC5nw==": "utter_answer_question",
    "eJzFkEEOgjAQRa/SAxCjW65CSDM2o1Rwqp2pYAh3dwhI2BhdaFx15uf3/d8W/SXizYITHyg3/TRYgjPmJolgtMC1TazDKA6Z4SYIq3XyFLvNtlR1dKjoSZAkN8eIKIPq7/lSAdX3kH6AHqu3FYiVYBuESF/NmJfGs15akV1QSiczPDMHT0AOl32VnJlrQp7gs8Bpf0InL6stT/nsB4hbPZ4pf2hZPgB1xdo2": "utter_ask_user_satisfaction",
    "eJzNkd0OwiAMhV+FB1iM3u5VloVU0jncLEqLP1n27tYwl90YvTDRK+ihfOcUquEY8WzBiQ9UmiFvLMEBS5NEMFppgbpbSGNhuA/C2pWPq81qXauaGKOKngRJSrOLiDKq/h4N3NlLC2Il2B4h0lc9pqL3rJcWZBeUcpUJXpjGE5DDuV44F+aUkDN8Ejht9+jkZbR5lM9egPiiy9PlX1PqPz0AlkE8N7njB1nrO+cN8s8=": "action_listen",
    "eJzNUUEOwjAM+0ofMCG47ivTVIUqg8JIoUkBadrfCWqZxgE4slMay7HdpBnOEa8WnPhAtRnywxKcsDZJBKMFPtrbHsRKsD1CpLEy3AdhpWdes1mtW0UTY1TQkyBJbXYRUUbFv3mUpvesQzNlF1TlLkW8Mp0nIIdTP3OuzCUhZ/ECcNoe0MnHaNNXfqQrGyC+aXm5LDWl3ukpYBnEc5cZi8v6n3u/rWRsHw/uCSo=": "utter_answer_back_satisfaction",
    "eJzNkcEKgzAMhl+lDyBju/oqIiWWCJ1dujXpNhDf3YzqwMtgJz0lf5p8/Uma8Z7wacGJj1SbsSSW4Ia1WUTwLEhTZThEYW1ykQTfUpvmcjq3lek9ATn86jK9iEdGLvClwLm7olunFZsZk1K9QknLEm1ASDTp0y93WQSTBeKXhvWXo7rkwX4AlkE896XjcF73ufdmJf/cvAM37LPQreV2Bjd5IvI=": "action_listen",
    "eJzNUUkOwjAM/EoeUCG49itVFbmRK0KLA7HDoip/x1UXiVu5ACd7bM9oNK6GS8SbBSc+UGmGqbEEZyxNEsFogfiu5ZqQx10uDPdBWI9dIMGHlKY67PZ1YVpPQA5XPKnMYOGvA07NCd3CVtnEGFXVqyjpWILtESJlXW1wyZ0dBSyDeG6ni7/zOoPes/K+5u4tkm1pTj9vwHW/CfQTy78JVY5A3TOknOsXlscjEQ==": "utter_return_thankyou",
    "eJzFUEkOgzAM/EoegKr2ylcQikxk1BTqtLHTRYi/1xUpUi9dLnCyx/aMR1MNp4gXC058oNIMU2MJjliaJILRAnc2sTYM4rmdLsbCcB+EleICCd6kNNVus60L03oCcjjjSSuDc0KeXuUBp+aA7sVW2ecrVfUqSjqWYHuESKOuPnnNoPesvMXcvUXyxWFOk/iqpQHXrRPoP5bXCVX2QN09pN8CjSgpkp1Jy7usH4PzIzs=": "action_listen",
    "eJy1UdEKwjAM/JV+wBB97a+MEboRXF1tZ3NVxti/r7LhgyD2Qd+SSy53R+p5jHwn08EGr9W8FeTNlbVKAEdCb/wwhbRUSlyA5K1tXJ8OxyajSThm0Hqwh1bnyIwl499PGxno0RsQAjk20f9UY2+clUwqvfy01AbQGERsa53FVJ7lnfg/zYJslbollo28A5LaC3f4aOT1hqVZATb9xi8=": "utter_answer_question",
    "eJy1UdEKwjAM/JV+wBB97a+MEdoRtFrT2aQOGft3K50KgtqXPSU5crk70k5DxCuYXlwgrabSAJkzapVEMILhE4wHIyABPJpIc6PYB+G8Xvba3WbbZTQxxgw6EiTRah8RZc74L41l8I4zqfbyw5INAkNgdtZ5J7d/Ou8sn8T1NCuyNeqSkAt5ATjZI/by1cjrDXWJicdcnioruOjusLTUog==": "utter_ask_user_satisfaction",
    "eJzFUNEKwjAM/JV+wBB93a+MEdoRIVrT2aSKjP27kc43lb0Mn5pe7nKXdNOY8QZ+UErcuqkWwP6CrVs+kUSR58ZJTCpGqt3usNv3hhbBbCCxkdREcoaQFMYkQoEi6WM21i+foooZPgm381yxW+OuBaWKF0BKOOGgX4Nogog+88qNWe72vF3+lcKO9xoA4pXkWBkbZOmfwUzh4A==": "action_listen",
    "eJzFUdEKwjAM/JV+wBB97a+MEboRIVrb2aSKjP37Iq0PwtQn9anpcZe7JO00JryAG4RisGYqBQR3QmuyCCZwfIQ+CoyRmXryJLe5MeyjsAoKs91ttp2imTEpSEEwiDVrUmW986wfT6wt1n0ac87IRVwBzv0BB3kZRCJ4dCl8cq8TB77q83D5Vwpd3r0BsBPifWH8PMt37vE00twtWtvpLQ==": "utter_answer_back_satisfaction",
    "eJzFUTsOwjAMvUoOUCFYe5WqstzISKHBhdiBoerda5QwdEFiKEz+vudnu5tviR6AXsPErZuLA4xXal0NYhAlXhoncVKxplLtTodj37h7JingmpA8XMhrjQ2WhZKhAhuLpXWCSJh4sdKn6VmVEiDL08x7yr9UyAgvAhDUIOfS8XMt+/xjs9I3PxnQj/scZCupXwFySvJk": "action_listen",
    "eJy9UdEKwjAM/JV+wBB93a+MUbIRsa6m2qSKjP77MjoF3yY4n5rk7trLtRmvEe8WenGBajOWwhJcsDZJBKMF4ocet4Q8Y7ky7IOwkgurOez2bWVe+HvAqTtjL0uvssQYVeVIkHQswXqESFmhFS54sPMFlkEcHwvj716WxjtW3c9e/1hpXRrlTzroh20C+cbSNqHICWh4hpRzOwEblfKD": "utter_return_thankyou",
    "eJy1kNsKwjAMhl+lDzBEb/cqY5RsRKytqTapImPvbqRF8MYDbFc5funfv5vOCa8WRnGRWjOVxBKcsDVZBJMF9jazJgzieF825sZwiMKKlN1ut9n2jblk5HKqNjgPRxyl1oo9TynlSJC0LdEGhESzjj5pqUVwrNxir7996YuC6gbxTcMAo1/HkH8krWOKHID8PebfDEkoOZF9Qcur6B8CRvKt": "utter_ask_learn_continuous",
    "eJzFkMEKwjAMhl+lDzBEr3uVMUpWItbNVJtEkbF3X6BD1IN4UHZqk79f+pFmPGe8eggSE9VuLBdPcMLaLcUQWZCmyvGQhO1RSZvdZttW7qLIBV4arN0Rgyy1YcqYjYpkU6zNIJH3ZfZk8ScDFcHsgfhmRweh9y/0Gkr/WYocgPp70u8WklE0k39A61gA935AMJGQSCJpUn5SeY/Kr5UrKr8SbWdhsPv+": "action_listen",
    "eJzFkUsKwkAMhq8yByii216llCEdIo6tGZ0kipTe3cAUUUHd+Fjl+ScfSTPuMx49BImJajcWxxPssHYqgtkD8clMB6H3DBJ5XZqmyvGQhE1V2pvVYtlW7qDIZdqcYO22GGSOTaaM2VSRBMnSd0Ot/AppDobIpv0YgWyA+nPSd9vLQTKKZvJX0X8ogHs/IBhISCSRNCnfoDyWytbKFZTfgD571lfZUrnKNLUX6bMD6Q==": "utter_answer_question",
    "eJzFkUEKAjEMRa/SAxTR7VxlGEotAevUVJtEkWHubqBVRFDcOK7a5PfnP9J+OhY4Ox84ZuzMVC8O/QE604oUiQFnayhlJn1U1X6zWg/WnASomluDZLuHwK1WmxAUdUXUKdrmncfxmmVW6VO6MENxBVgKuofpPxSeRpfAK0jIyBElCz2hvEo11ZqKsgzou8/6KVuuW/lyiUgXPe4pizMONwdwCEU=": "action_listen",
    "eJytj9EJwzAMRFfxAJnAq5QiRKzUglg2ihwowbvH4PwVmo/2R5yO00P3OIrSDjgbZ/HuGAIEE3lXzUjhpUTWJlc30p5gMRLzbtjd/0a4lpW3fvTJSDkHqBKxlPcdajwzR+qzln+wAgewiAaR1h+BNz1xWVhTa88TXAGNAw==": "utter_happy",
    "eJytj90JgDAMhFfpAE7QVURCsJEGbFpqKoi4uwV99Qf05chx4UuuXVOmGbBXjmLNegwgGMia04w8KcnWmDJRrjss1ao1IUYHRTymtGw1vkMVVcrQe6pa0h8sxw7Uo4Kn8SPwoScOA+fw7qvj3iWi2wE3841s": "action_listen",
    "eJytjkEKwjAQRa+SAxTRba5SSkjDUMamSc1MRCm5ewdSXaioiLuZz/+P1y5zgrOxjjEGrZZ6mGAn0Gp7PBJDKI3KBEk6GORlrYYEwEXyd4zMDMnU6m+EDxaWRtNHNnMkwh498vU7p1fDf9AffclHJim5KMyLMNvDbt81arJpBMYw3JNTBqrELaDcH8HdJs92HI0Hm0Ip3QpB26tm": "utter_answer_question",
    "eJy9j00OgkAMha8yByBGt1yFkMlAGlIZOjjt+BPC3W0y4EKMujCu2r70fX2tpjHC2bpWMFBpptxYcgOUJolAtF0EkLkwiSHqBpIASWmyrPo7wjJ4ZDVtGY572wSxY2DGBj3K7RMxZ3pl/AX9OS/7IKxLbVDmVZnVYbevCzO42IMgdQ/llIAzcRE4NUdoV8s2nQTrwUX68mHii5b1yr+i1Xe9XMib": "utter_ask_user_satisfaction",
    "eJzNkN0KwjAMhV+lDzBEb/cqY5R2RInr0tmk/jD27ka2eaEiXoh41eb05MtJq6FPcLSuEYxUmmG6WHIdlGYuArIAjYXJDEk9SFqKPnNrfRTbR2b0GFAuo7reEbMIJPuq8Rv0x7wcorCamqjMszKrzWpdF6ZzqQVB2t2VQwaeiLPA2e+hWVqe00m0AVyiDxcmPumxTPmraPrNN4BlJ8jbyfGrgPUVk0vo7w==": "action_listen",
    "eJzNkd0KwjAMRl+lDzBEb/cqY5RuRInr0tmk/jD27kbWCaLoneyqbTg9+dJW4xDhbF0rGKg047yx5HooTRKBaB13tglih8CMDXqU21SYxBCVRxIgKc0nSKlv9nzwyKpQln0QVqgN6ryqs9pttnVhehc7EKTDs3JKwLMxFzg1R2iXK+/pJFgPLtKvSHlg4osuS5dVRdNnfggsO0Hez8Q6Av7xO1+Gn+o7AT/+ZA==": "utter_answer_back_satisfaction",
    "eJyLrq7VUaguKEoti09MLsnMz7NSqIYw4vMSc1OtFKCcnMziktQ8oNrS4tQioJrMPCC3xEohvSg1taSWgBmlJSWpRfEQpeSZQMAV+WlpqXkptbWxAPz6TsY=": "utter_answer_offend",
    "eJyLrq7VUaguKEoti09MLsnMz7NSqIYw4vMSc1OtFKCcnMziktQ8oNrS4tQioJrMPCC3xEohvSg1taSWgBmlJSWpRfEQpeSZQMAV+WlpqXkpxDkjMa+4HEhBteA0KhYATp9rfQ==": "action_listen",
    "eJyLrq7VUaguKEoti09MLsnMz7NSqIYw4vMSc1OtFKCcnMziktQ8oNrS4tQioJrMPCC3xEohvSg1taSWgBmlJSWpRfEQpeSZQMAVufn5KSDzE4EGxQIAPEFQdQ==": "utter_happy",
    "eJyLrq7VUaguKEoti09MLsnMz7NSqIYw4vMSc1OtFKCcnMziktQ8oNrS4tQioJrMPCC3xEohvSg1taSWgBmlJSWpRfEQpeSZQMAVufn5KSDzE4l0SkZiQUElfmNiAVKZa5w=": "action_listen",
    "eJytkNEKwjAMRX+lHyCir/2VMUInQcNqM5pUGKP/bmZ92oMM5ltuOPdA0i1TxheEmxIn75Y2QApP9O4bIoliqidXBLMxlCyqd/eMqNX2vxxFFTM09IghyAhr+7O0hkRWMbQx3fV86Q/59RHSOHP5q3r7wF3m9dKBFSYWoYEi6Vxr/wZBzJ8S": "utter_ask_bot_possibility",
    "eJytkNEKwjAMRX+lHyCir/2VMUInQcNqMppUGMN/N7M++eJgvqWXe05Iu2Uq+IB0MRKOYWkDcLpjDNUMC1wLoj0PoSoWbxAbssXQYs9/G5KOsNLv0AnNYurV1unOx1O/y2+3xOMs9a/qzyOTOrTVvF46iMEkqjRQJpu3f9E3uGdn/wIMuLEx": "utter_ask_what_to_learn",
    "eJy9j1EKwkAMRK+yBxDR371KKSGVYEPXTdlklVJ6d1Pqp2BB8W/ymJkwzTwWugNejCXHMG8CMt4ohmpGBVAHqOpihcshaBJTt26e5nw8tU5Xh0PORtliuBYiW5x/7rce8zBJ/Wn160isHtrbvC7txGAUVe44sU37JrwL/uPno0cDE0iE5buV7RMrYsMa": "action_listen",
    "eJy9UEEOgkAM/Mo+gBi98hVCmoU0WFm3uO2qhPB3N1miHkS96K0zbWc6raYh4Blsq8S+NFMuwNsjliaqYgDdW9+PHOfCiGOVNJXb1W6zrRMbBUMiySt6LU0XEHVO/DvpBTiStPStspUeGlYYWIQacqTjJ58c4dXiPzwve6ugDA5t+GXKtW+2nDSvulgV5sm3MKeIksUWQtA58t0Dx+aAra4eeg821zcV99Xi": "utter_answer_question",
    "eJzFkN0OwjAIhV+lD7AYvd2rLAvpFqJobWehzmXZu0vS+XPhjDfqVcvhwAdUYxfxDLYVCr40Y/6At0cszRw4YkE/FYZdEFZTzlab1bpWNTFGFcmrSbSID9AEgS4wU0OOZJjU9Y6TRDDCq8JfMPudFZAADm385pZL12yD9rzIjCrME7cwp4Scm80Co3Pkt484NXtsZXHQ+2Kf3cNzr8+N+ocp6yu4Vu4i": "utter_ask_user_satisfaction",
    "eJzNkNEKwjAMRX+lHzBEX/crY4RuRI3WdjapU4b/bqRT96CwF9GnNpfknptUQxfxBLYVCr40Q/6AtwcsTRLBCJb30ASBLjBTQ47kci0MuyCsA7mzWi2WtaqJMapIXtBLad6Natc8Zr+1AhLAoY3+i8SxcMRqMeG0QT3PMqIKM+EW5piQs9koMDpHfvOqU7PDVj4GfS427x6ee30e1H9Nqce/GwBbIV7njh9krW9+OgOC": "action_listen",
    "eJzNUUEOwiAQ/AoPaIxe+5WmIbRZdRWhsovVNP2724BaD+rRnmAnw8zsUA1dgIs2LaN3pRrSRTtzglJFZgja0FH3e8OavbZgghsLRdYzCT3xqs1qXQsaCYKA6Bgcl2p62HjWnSfCBi3ybRTWN8c8WCSRmPm0XjSvnK0KNfMt1DkCJbEMEFiLbveaY3OAlj8GfS72I13uw1Evx8N1qSml/ElAk2GkbWIsLut//vutkrG+A/AkD3g=": "utter_answer_back_satisfaction",
    "eJzNkdEKwjAMRX+lHzBEX/srY5SuRKmrqTapCmP/vkg7ZC+CT9tTe9Pbk0vSjvcET2Md+4hajeVi0N5AqyqCJwacGkUhMonJRWR4s1bt6XDsGlXcVTwyUIHVAkEIHi9fnfsruOW3YDNBEqoXKEqZowlgE07y9CtdZoZkLNJLjqXrXlPSYD4AQ5Y9nYtjd1m32fdqJP/svLdu2Gag68jdDAWgI3Q=": "action_listen",
    "eJzNUcsOwjAM+5V+wITgul+ZpqpUAcpKCk3KQ1P/nUzdQNzGhXFqndiW5TT9OcJVG8suYK368tFoTlCrxAxRG6SbPJcENOxypcgHJiHbgAx3rlWzWa3bShXVCCb+a0DgvcP9G6ftEeykFttEEMXViSnKmIP2YCJmWc1ISZ0eDDQZdrQrjL/LOgLvSHQ/S/dRybw2y823xnbLFPpN5GVK5YPB7hFSzu0TYCgjkw==": "utter_return_thankyou",
    "eJzFkE0OwiAQha/CARqj216laQglo2JxUGbwJ03v7hhQ48afTbti3sD3eHnNcIhw0sayC1irIQ8azR5qlZghakO9TiQDGXa0zi/GSpEPTILYgAwXrlWzWizbSmW2iGMCytZlQeC9w81Lp24H9kGL7f0rcXViirLmoD2YiKNcfcpahHck3GTp3ir5krC0iXSWozO2n6fQfyLPUypvDfbXkH4rNAKniPoJTZ+yvQFMniO9": "action_listen",
    "eJzNkd0KwjAMRl+lDzBEb/cqY4RuRInWdDapP4y9u5FtiCh6J7tqU05Ov7RV3yU8g2+VIpeuHzfA/oily6qYwMsBmqjQRRFqKJDehsJlwWQ8sSJr6T5BRn2zT0UgMYWxEqKKQW0059Wc1Wa1rgt3yihj/3QgGALx7lnnZo/t3PCeTSME9Il/BZrGZbnYMt+6oGD2xA8BiFeS7UgsId7fPvJl8KG+A4us+xQ=": "utter_answer_back_satisfaction",
    "eJzNkEsKwkAMhq8yByii216llCEtUceOGZ0kPii9uyNTFV0UFyJd5fn/+UjVHyKeLLTiApWmz4kl2GNpxsI7FqShMOyDcFpqAwlepDTVarGsC3NU5KwfG4zeO9q8am122D4EyUkZYzJyyYdSm0Ecr/O5IY2noFQEowXicwoNtJ19U8+E8m+vky1Qdw363dsiikayT9FswIA76xES2x3EkQblCbrP1TwozM/Z6xuz3BtI": "action_listen",
    "eJzNkUkOwjAMRa+SA1QItr0KqqK0MhAaHIhtBlW9O0YpIFgUNkWsHA//58ledvsER+sa9hFL0+WHRbeD0ggzJOuQThpq17SWHHta5aG+MBQik6qaiAxnLs1yMZtXhTkIUDYcCgQheFw/c6m30NwF6iQESY28+qCWX/7R9hjlkARPqp0SijcO20uUT0B5bQlYEtqH6G/AHLU2gFO2G4hHiUIjdO+juVGYH7N/e+WpcWPeXd9XV49aIyQ=": "utter_answer_question"
  }
}